###############################################################################
#                                                                             #
#  TakTuk, a middleware for adaptive large scale parallel remote executions   #
#  deployment. Perl implementation, copyright(C) 2006 Guillaume Huard.        #
#                                                                             #
#  This program is free software; you can redistribute it and/or modify       #
#  it under the terms of the GNU General Public License as published by       #
#  the Free Software Foundation; either version 2 of the License, or          #
#  (at your option) any later version.                                        #
#                                                                             #
#  This program is distributed in the hope that it will be useful,            #
#  but WITHOUT ANY WARRANTY; without even the implied warranty of             #
#  MERCHANTABILITY or FITNESS FOR A PARTICULAR PURPOSE.  See the              #
#  GNU General Public License for more details.                               #
#                                                                             #
#  You should have received a copy of the GNU General Public License          #
#  along with this program; if not, write to the Free Software                #
#  Foundation, Inc., 51 Franklin St, Fifth Floor, Boston, MA  02110-1301  USA #
#                                                                             #
#  Contact: Guillaume.Huard@imag.fr                                           #
#           Laboratoire LIG - ENSIMAG - Antenne de Montbonnot                 #
#           51 avenue Jean Kuntzmann                                          #
#           38330 Montbonnot Saint Martin                                     #
#           FRANCE                                                            #
#                                                                             #
###############################################################################

0:TITLE:TAKTUK DYNAMIC OPTIONS TESTS

1:TITLE:TEMPLATES, default and modified
1:INC:echo_template_changes.sh
1:CMD:echo_template_changes '|' $TAKTUK -m localhost

2:TITLE:NETWORK, dynamic evolution
2:INC:echo_network_evolution.sh
2:CMD:echo_network_evolution '|' $TAKTUK

3:TITLE:CONNECTIONS TIMEOUT, on synchronized network state
3:CMD:$TAKTUK -t 1 `generate_hosts 10` synchronize network state

4:TITLE:CONNECTIONS TIMEOUT BIS, on simple network state
4:CMD:$TAKTUK -t .8 `generate_hosts 10` network state
 :RAW:    \;synchronize network state
